<?xml version="1.0" standalone="no"?><!-- Generator: Gravit.io -->
<svg xmlns="http://www.w3.org/2000/svg" xmlns:xlink="http://www.w3.org/1999/xlink" style="isolation:isolate"
     viewBox="0 0 32 32" width="32" height="32">
    <defs>
        <clipPath id="_clipPath_CDFOxzND1uALUoEXAw6Qk7OEtuAaN2fa">
            <rect width="32" height="32"/>
        </clipPath>
    </defs>
    <g clip-path="url(#_clipPath_CDFOxzND1uALUoEXAw6Qk7OEtuAaN2fa)">
        <g>
            <path d=" M 29.763 8.119 L 16 0.238 L 2.237 8.119 L 2.237 23.881 L 6.825 26.508 L 6.825 10.746 L 16 5.492 L 25.175 10.746 L 25.175 26.508 L 29.763 23.881 L 29.763 8.119 Z "
                  fill="rgb(21,114,232)"/>
            <path d=" M 20.588 13.373 L 16 10.746 L 11.412 13.373 L 11.412 18.627 L 16 21.254 L 20.588 18.627 L 20.588 13.373 Z "
                  fill="rgb(21,114,232)"/>
            <path d=" M 20.588 23.881 L 16 26.508 L 11.412 23.881 L 11.412 29.135 L 16 31.762 L 20.588 29.135 L 20.588 23.881 Z "
                  fill="rgb(21,114,232)"/>
        </g>
    </g>
</svg>